%YAML 1.1
%TAG !u! tag:unity3d.com,2011:
--- !u!114 &11400000
MonoBehaviour:
  m_ObjectHideFlags: 0
  m_CorrespondingSourceObject: {fileID: 0}
  m_PrefabInstance: {fileID: 0}
  m_PrefabAsset: {fileID: 0}
  m_GameObject: {fileID: 0}
  m_Enabled: 1
  m_EditorHideFlags: 0
  m_Script: {fileID: 11500000, guid: 8e917b623860a144981db7aef8992451, type: 3}
  m_Name: PlayerModel
  m_EditorClassIdentifier: 
  health:
    currentValue:
      value: 100
    maximumValue:
      value: 100
  protection: 0.295
  movementSpeed: 5
